…
#### `group_by()`

``` r
  weather_df %>%
    group_by(name, month)
```

    ## # A tibble: 1,095 × 8
    ## # Groups:   name, month [36]
    ##        X name           id          date        prcp  tmax  tmin month
    ##    <int> <chr>          <chr>       <chr>      <int> <dbl> <dbl> <chr>
    ##  1     1 CentralPark_NY USW00094728 2017-01-01     0   8.9   4.4 01   
    ##  2     2 CentralPark_NY USW00094728 2017-01-02    53   5     2.8 01   
    ##  3     3 CentralPark_NY USW00094728 2017-01-03   147   6.1   3.9 01   
    ##  4     4 CentralPark_NY USW00094728 2017-01-04     0  11.1   1.1 01   
    ##  5     5 CentralPark_NY USW00094728 2017-01-05     0   1.1  -2.7 01   
    ##  6     6 CentralPark_NY USW00094728 2017-01-06    13   0.6  -3.8 01   
    ##  7     7 CentralPark_NY USW00094728 2017-01-07    81  -3.2  -6.6 01   
    ##  8     8 CentralPark_NY USW00094728 2017-01-08     0  -3.8  -8.8 01   
    ##  9     9 CentralPark_NY USW00094728 2017-01-09     0  -4.9  -9.9 01   
    ## 10    10 CentralPark_NY USW00094728 2017-01-10     0   7.8  -6   01   
    ## # ℹ 1,085 more rows
…
``` r
  weather_df %>%
    group_by(name, month) %>%
    summarize(count=n())
```

    ## `summarise()` has grouped output by 'name'. You can override using the
    ## `.groups` argument.

    ## # A tibble: 36 × 3
    ## # Groups:   name [3]
    ##    name           month count
    ##    <chr>          <chr> <int>
    ##  1 CentralPark_NY 01       31
    ##  2 CentralPark_NY 02       28
    ##  3 CentralPark_NY 03       31
    ##  4 CentralPark_NY 04       30
    ##  5 CentralPark_NY 05       31
    ##  6 CentralPark_NY 06       30
    ##  7 CentralPark_NY 07       31
    ##  8 CentralPark_NY 08       31
    ##  9 CentralPark_NY 09       30
    ## 10 CentralPark_NY 10       31
    ## # ℹ 26 more rows
…
``` r
  weather_df %>%
    group_by(name, month) %>%
      summarize(across(prcp:tmin, mean))
```

    ## `summarise()` has grouped output by 'name'. You can override using the
    ## `.groups` argument.

    ## # A tibble: 36 × 5
    ## # Groups:   name [3]
    ##    name           month  prcp  tmax   tmin
    ##    <chr>          <chr> <dbl> <dbl>  <dbl>
    ##  1 CentralPark_NY 01     39.5  5.98  0.748
    ##  2 CentralPark_NY 02     22.5  9.28  1.45 
    ##  3 CentralPark_NY 03     43.0  8.22 -0.177
    ##  4 CentralPark_NY 04     32.5 18.3   9.66 
    ##  5 CentralPark_NY 05     52.3 20.1  12.2  
    ##  6 CentralPark_NY 06     40.4 26.3  18.2  
    ##  7 CentralPark_NY 07     34.3 28.7  21.0  
    ##  8 CentralPark_NY 08     27.4 27.2  19.5  
    ##  9 CentralPark_NY 09     17.0 25.4  17.4  
    ## 10 CentralPark_NY 10     34.3 21.8  13.9  
    ## # ℹ 26 more rows
…
## What about window functions?

``` r
  weather_df %>%
      group_by(name, month) %>%
      mutate(temp_rank = min_rank(desc(tmax)))
```

    ## # A tibble: 1,095 × 9
    ## # Groups:   name, month [36]
    ##        X name           id          date        prcp  tmax  tmin month temp_rank
    ##    <int> <chr>          <chr>       <chr>      <int> <dbl> <dbl> <chr>     <int>
    ##  1     1 CentralPark_NY USW00094728 2017-01-01     0   8.9   4.4 01            9
    ##  2     2 CentralPark_NY USW00094728 2017-01-02    53   5     2.8 01           19
    ##  3     3 CentralPark_NY USW00094728 2017-01-03   147   6.1   3.9 01           14
    ##  4     4 CentralPark_NY USW00094728 2017-01-04     0  11.1   1.1 01            4
    ##  5     5 CentralPark_NY USW00094728 2017-01-05     0   1.1  -2.7 01           25
    ##  6     6 CentralPark_NY USW00094728 2017-01-06    13   0.6  -3.8 01           28
    ##  7     7 CentralPark_NY USW00094728 2017-01-07    81  -3.2  -6.6 01           29
    ##  8     8 CentralPark_NY USW00094728 2017-01-08     0  -3.8  -8.8 01           30
    ##  9     9 CentralPark_NY USW00094728 2017-01-09     0  -4.9  -9.9 01           31
    ## 10    10 CentralPark_NY USW00094728 2017-01-10     0   7.8  -6   01           11
    ## # ℹ 1,085 more rows

lag

``` r
  weather_df %>%
      group_by(name) %>%
      mutate(lag_temp = lag(tmax)) # by default, lag_temp contains the record obtained from tmax lagging by 1 position
```

    ## # A tibble: 1,095 × 9
    ## # Groups:   name [3]
    ##        X name           id          date        prcp  tmax  tmin month lag_temp
    ##    <int> <chr>          <chr>       <chr>      <int> <dbl> <dbl> <chr>    <dbl>
    ##  1     1 CentralPark_NY USW00094728 2017-01-01     0   8.9   4.4 01        NA  
    ##  2     2 CentralPark_NY USW00094728 2017-01-02    53   5     2.8 01         8.9
    ##  3     3 CentralPark_NY USW00094728 2017-01-03   147   6.1   3.9 01         5  
    ##  4     4 CentralPark_NY USW00094728 2017-01-04     0  11.1   1.1 01         6.1
    ##  5     5 CentralPark_NY USW00094728 2017-01-05     0   1.1  -2.7 01        11.1
    ##  6     6 CentralPark_NY USW00094728 2017-01-06    13   0.6  -3.8 01         1.1
    ##  7     7 CentralPark_NY USW00094728 2017-01-07    81  -3.2  -6.6 01         0.6
    ##  8     8 CentralPark_NY USW00094728 2017-01-08     0  -3.8  -8.8 01        -3.2
    ##  9     9 CentralPark_NY USW00094728 2017-01-09     0  -4.9  -9.9 01        -3.8
    ## 10    10 CentralPark_NY USW00094728 2017-01-10     0   7.8  -6   01        -4.9
    ## # ℹ 1,085 more rows

``` r
  weather_df %>%
      group_by(name) %>%
      mutate(lag_temp = lag(tmax, 5))  # you can specify to lag by N positions
```

    ## # A tibble: 1,095 × 9
    ## # Groups:   name [3]
    ##        X name           id          date        prcp  tmax  tmin month lag_temp
    ##    <int> <chr>          <chr>       <chr>      <int> <dbl> <dbl> <chr>    <dbl>
    ##  1     1 CentralPark_NY USW00094728 2017-01-01     0   8.9   4.4 01        NA  
    ##  2     2 CentralPark_NY USW00094728 2017-01-02    53   5     2.8 01        NA  
    ##  3     3 CentralPark_NY USW00094728 2017-01-03   147   6.1   3.9 01        NA  
    ##  4     4 CentralPark_NY USW00094728 2017-01-04     0  11.1   1.1 01        NA  
    ##  5     5 CentralPark_NY USW00094728 2017-01-05     0   1.1  -2.7 01        NA  
    ##  6     6 CentralPark_NY USW00094728 2017-01-06    13   0.6  -3.8 01         8.9
    ##  7     7 CentralPark_NY USW00094728 2017-01-07    81  -3.2  -6.6 01         5  
    ##  8     8 CentralPark_NY USW00094728 2017-01-08     0  -3.8  -8.8 01         6.1
    ##  9     9 CentralPark_NY USW00094728 2017-01-09     0  -4.9  -9.9 01        11.1
    ## 10    10 CentralPark_NY USW00094728 2017-01-10     0   7.8  -6   01         1.1
    ## # ℹ 1,085 more rows

``` r
  weather_df %>%
      group_by(name) %>%
      mutate(temp_change = tmax - lag(tmax)) # 比如，第二行 5.0-8.9=-3.9
```

    ## # A tibble: 1,095 × 9
    ## # Groups:   name [3]
    ##        X name           id          date      prcp  tmax  tmin month temp_change
    ##    <int> <chr>          <chr>       <chr>    <int> <dbl> <dbl> <chr>       <dbl>
    ##  1     1 CentralPark_NY USW00094728 2017-01…     0   8.9   4.4 01         NA    
    ##  2     2 CentralPark_NY USW00094728 2017-01…    53   5     2.8 01         -3.9  
    ##  3     3 CentralPark_NY USW00094728 2017-01…   147   6.1   3.9 01          1.1  
    ##  4     4 CentralPark_NY USW00094728 2017-01…     0  11.1   1.1 01          5    
    ##  5     5 CentralPark_NY USW00094728 2017-01…     0   1.1  -2.7 01        -10    
    ##  6     6 CentralPark_NY USW00094728 2017-01…    13   0.6  -3.8 01         -0.5  
    ##  7     7 CentralPark_NY USW00094728 2017-01…    81  -3.2  -6.6 01         -3.8  
    ##  8     8 CentralPark_NY USW00094728 2017-01…     0  -3.8  -8.8 01         -0.600
    ##  9     9 CentralPark_NY USW00094728 2017-01…     0  -4.9  -9.9 01         -1.10 
    ## 10    10 CentralPark_NY USW00094728 2017-01…     0   7.8  -6   01         12.7  
    ## # ℹ 1,085 more rows
…
